Draw Maps
…
Gun-related suicides by county; Reverse-coded population density by county.

Small-multiple maps

opiates

## # A tibble: 800 x 11
##     year state    fips deaths population crude adjusted adjusted_se region abbr 
##    <int> <chr>   <int>  <int>      <int> <dbl>    <dbl>       <dbl> <ord>  <chr>
##  1  1999 Alabama     1     37    4430141   0.8      0.8         0.1 South  AL   
##  2  1999 Alaska      2     27     624779   4.3      4           0.8 West   AK   
##  3  1999 Arizona     4    229    5023823   4.6      4.7         0.3 West   AZ   
##  4  1999 Arkans~     5     28    2651860   1.1      1.1         0.2 South  AR   
##  5  1999 Califo~     6   1474   33499204   4.4      4.5         0.1 West   CA   
##  6  1999 Colora~     8    164    4226018   3.9      3.7         0.3 West   CO   
##  7  1999 Connec~     9    151    3386401   4.5      4.4         0.4 North~ CT   
##  8  1999 Delawa~    10     32     774990   4.1      4.1         0.7 South  DE   
##  9  1999 Distri~    11     28     570213   4.9      4.9         0.9 South  DC   
## 10  1999 Florida    12    402   15759421   2.6      2.6         0.1 South  FL   
## # ... with 790 more rows, and 1 more variable: division_name <chr>
…
